[
    {
        "name": "league/csv",
        "version": "9.1.3",
        "version_normalized": "9.1.3.0",
        "source": {
            "type": "git",
            "url": "https://github.com/thephpleague/csv.git",
            "reference": "0d0b12f1a0093a6c39014a5d118f6ba4274539ee"
        },
        "dist": {
            "type": "zip",
            "url": "https://api.github.com/repos/thephpleague/csv/zipball/0d0b12f1a0093a6c39014a5d118f6ba4274539ee",
            "reference": "0d0b12f1a0093a6c39014a5d118f6ba4274539ee",
            "shasum": ""
        },
        "require": {
            "ext-mbstring": "*",
            "php": ">=7.0.10"
        },
        "require-dev": {
            "ext-curl": "*",
            "friendsofphp/php-cs-fixer": "^2.0",
            "phpstan/phpstan": "^0.9.2",
            "phpstan/phpstan-phpunit": "^0.9.4",
            "phpstan/phpstan-strict-rules": "^0.9.0",
            "phpunit/phpunit": "^6.0"
        },
        "suggest": {
            "ext-iconv": "Needed to ease transcoding CSV using iconv stream filters"
        },
        "time": "2018-03-12T07:20:01+00:00",
        "type": "library",
        "extra": {
            "branch-alias": {
                "dev-master": "9.x-dev"
            }
        },
        "installation-source": "dist",
        "autoload": {
            "psr-4": {
                "League\\Csv\\": "src"
            },
            "files": [
                "src/functions_include.php"
            ]
        },
        "notification-url": "https://packagist.org/downloads/",
        "license": [
            "MIT"
        ],
        "authors": [
            {
                "name": "Ignace Nyamagana Butera",
                "email": "nyamsprod@gmail.com",
                "homepage": "https://github.com/nyamsprod/",
                "role": "Developer"
            }
        ],
        "description": "Csv data manipulation made easy in PHP",
        "homepage": "http://csv.thephpleague.com",
        "keywords": [
            "csv",
            "export",
            "filter",
            "import",
            "read",
            "write"
        ]
    }
]
